Análise preditiva conjunto de dados Carseats
…
# Prep: Estima os parâmetros para aplicar o processamento
receita_prep <- prep(receita)

# Bake: Aplica a receita no conjunto de dados Carseats
treinamento_proc <- bake(receita_prep, new_data = treinamento)
teste_proc <- bake(receita_prep, new_data = teste)

teste_proc

## # A tibble: 79 x 12
##       Sales CompPrice Income Population   Price      Age Education Advertising
##       <dbl>     <dbl>  <dbl>      <dbl>   <dbl>    <dbl>     <dbl>       <dbl>
##  1 -0.00247   -0.542   1.15      1.38   -0.871   1.21e-1    0.0591           4
##  2 -1.01       0.434   1.62     -0.924   0.299   1.39e+0    1.20             0
##  3  1.32      -0.672  -1.46     -1.63   -1.35    1.89e-4    1.58            11
##  4  1.39      -1.19    1.76     -0.807   0.0387 -6.04e-2    1.58            11
##  5  1.81       1.41    0.205    -0.0992  0.602  -6.04e-2   -1.46            13
##  6  2.41      -0.997   1.51      0.980  -2.13   -4.24e-1    1.20             0
##  7  0.490      0.238   0.277    -1.43    0.169   9.69e-1   -0.700           16
##  8  1.75       0.564  -1.43     -0.182  -0.351   5.45e-1    1.58            12
##  9 -1.64      -1.45    0.205     0.643  -0.871   1.21e-1   -1.08             0
## 10  2.28      -0.0217  0.930     1.25   -1.22   -1.39e+0   -0.700            0
## # ... with 69 more rows, and 4 more variables: ShelveLoc_Good <dbl>,
## #   ShelveLoc_Medium <dbl>, Urban_Yes <dbl>, US_Yes <dbl>
…
